TITL Au-OQMD_592562-CollCode44362 -0.150793 16.6966 -3.20969261 0 0 1 (Fm-3m) n - 1
CELL 1.0  2.868892017406 2.868892017406 2.868892017406 60.0 60.0 60.0
LATT -1
SFAC 	 Au
Au        1       0.000000        0.000000        0.000000         1.000000
END
