TITL Cu-OQMD_592441-CollCode43493 -0.101248 11.0713 -3.68065482 0 0 1 (Fm-3m) n - 1
CELL 1.0  2.501718335994 2.501718335994 2.501718335994 60.0 60.0 60.0
LATT -1
SFAC 	 Cu
Cu        1       0.000000        0.000000        0.000000         1.000000
END
